{
    "variables": [],
    "info": {
        "name": "Wizniche API",
        "_postman_id": "853cafde-8206-4d64-8ded-94ce50dc40b8",
        "description": "",
        "schema": "https:\/\/schema.getpostman.com\/json\/collection\/v2.0.0\/collection.json"
    },
    "item": [
        {
            "name": "general",
            "description": "",
            "item": [
                {
                    "name": "http:\/\/localhost:8000\/api\/login",
                    "request": {
                        "url": "http:\/\/localhost:8000\/api\/login",
                        "method": "POST",
                        "header": [
                            {
                                "key": "Content-Type",
                                "value": "application\/json"
                            },
                            {
                                "key": "Accept",
                                "value": "application\/json"
                            }
                        ],
                        "body": {
                            "mode": "raw",
                            "raw": "[]"
                        },
                        "description": "",
                        "response": []
                    }
                },
                {
                    "name": "http:\/\/localhost:8000\/api\/register",
                    "request": {
                        "url": "http:\/\/localhost:8000\/api\/register",
                        "method": "POST",
                        "header": [
                            {
                                "key": "Content-Type",
                                "value": "application\/json"
                            },
                            {
                                "key": "Accept",
                                "value": "application\/json"
                            }
                        ],
                        "body": {
                            "mode": "raw",
                            "raw": "[]"
                        },
                        "description": "",
                        "response": []
                    }
                },
                {
                    "name": "Will create a request to reset password",
                    "request": {
                        "url": "http:\/\/localhost:8000\/api\/password\/create",
                        "method": "POST",
                        "header": [
                            {
                                "key": "Content-Type",
                                "value": "application\/json"
                            },
                            {
                                "key": "Accept",
                                "value": "application\/json"
                            }
                        ],
                        "body": {
                            "mode": "raw",
                            "raw": "[]"
                        },
                        "description": "",
                        "response": []
                    }
                },
                {
                    "name": "http:\/\/localhost:8000\/api\/password\/find\/{token}",
                    "request": {
                        "url": "http:\/\/localhost:8000\/api\/password\/find\/{token}",
                        "method": "GET",
                        "header": [
                            {
                                "key": "Content-Type",
                                "value": "application\/json"
                            },
                            {
                                "key": "Accept",
                                "value": "application\/json"
                            }
                        ],
                        "body": {
                            "mode": "raw",
                            "raw": "[]"
                        },
                        "description": "",
                        "response": []
                    }
                },
                {
                    "name": "http:\/\/localhost:8000\/api\/password\/reset",
                    "request": {
                        "url": "http:\/\/localhost:8000\/api\/password\/reset",
                        "method": "POST",
                        "header": [
                            {
                                "key": "Content-Type",
                                "value": "application\/json"
                            },
                            {
                                "key": "Accept",
                                "value": "application\/json"
                            }
                        ],
                        "body": {
                            "mode": "raw",
                            "raw": "[]"
                        },
                        "description": "",
                        "response": []
                    }
                },
                {
                    "name": "http:\/\/localhost:8000\/api\/logout",
                    "request": {
                        "url": "http:\/\/localhost:8000\/api\/logout",
                        "method": "GET",
                        "header": [
                            {
                                "key": "Content-Type",
                                "value": "application\/json"
                            },
                            {
                                "key": "Accept",
                                "value": "application\/json"
                            }
                        ],
                        "body": {
                            "mode": "raw",
                            "raw": "[]"
                        },
                        "description": "",
                        "response": []
                    }
                },
                {
                    "name": "http:\/\/localhost:8000\/api\/authUser",
                    "request": {
                        "url": "http:\/\/localhost:8000\/api\/authUser",
                        "method": "GET",
                        "header": [
                            {
                                "key": "Content-Type",
                                "value": "application\/json"
                            },
                            {
                                "key": "Accept",
                                "value": "application\/json"
                            }
                        ],
                        "body": {
                            "mode": "raw",
                            "raw": "[]"
                        },
                        "description": "",
                        "response": []
                    }
                },
                {
                    "name": "Display a listing of the resource.",
                    "request": {
                        "url": "http:\/\/localhost:8000\/api\/permission",
                        "method": "GET",
                        "header": [
                            {
                                "key": "Content-Type",
                                "value": "application\/json"
                            },
                            {
                                "key": "Accept",
                                "value": "application\/json"
                            }
                        ],
                        "body": {
                            "mode": "raw",
                            "raw": "[]"
                        },
                        "description": "GET \/api\/{resource}.",
                        "response": []
                    }
                },
                {
                    "name": "Store a newly created resource in storage.",
                    "request": {
                        "url": "http:\/\/localhost:8000\/api\/permission",
                        "method": "POST",
                        "header": [
                            {
                                "key": "Content-Type",
                                "value": "application\/json"
                            },
                            {
                                "key": "Accept",
                                "value": "application\/json"
                            }
                        ],
                        "body": {
                            "mode": "raw",
                            "raw": "[]"
                        },
                        "description": "POST \/api\/{resource}.",
                        "response": []
                    }
                },
                {
                    "name": "Display the specified resource.",
                    "request": {
                        "url": "http:\/\/localhost:8000\/api\/permission\/{permission}",
                        "method": "GET",
                        "header": [
                            {
                                "key": "Content-Type",
                                "value": "application\/json"
                            },
                            {
                                "key": "Accept",
                                "value": "application\/json"
                            }
                        ],
                        "body": {
                            "mode": "raw",
                            "raw": "[]"
                        },
                        "description": "GET \/api\/{resource}\/{id}.",
                        "response": []
                    }
                },
                {
                    "name": "Update the specified resource in storage.",
                    "request": {
                        "url": "http:\/\/localhost:8000\/api\/permission\/{permission}",
                        "method": "PUT",
                        "header": [
                            {
                                "key": "Content-Type",
                                "value": "application\/json"
                            },
                            {
                                "key": "Accept",
                                "value": "application\/json"
                            }
                        ],
                        "body": {
                            "mode": "raw",
                            "raw": "[]"
                        },
                        "description": "PUT \/api\/{resource}\/{id}.",
                        "response": []
                    }
                },
                {
                    "name": "Remove the specified resource from storage.",
                    "request": {
                        "url": "http:\/\/localhost:8000\/api\/permission\/{permission}",
                        "method": "DELETE",
                        "header": [
                            {
                                "key": "Content-Type",
                                "value": "application\/json"
                            },
                            {
                                "key": "Accept",
                                "value": "application\/json"
                            }
                        ],
                        "body": {
                            "mode": "raw",
                            "raw": "[]"
                        },
                        "description": "DELETE \/api\/{resource}\/{id}.",
                        "response": []
                    }
                },
                {
                    "name": "Display a listing of the resource.",
                    "request": {
                        "url": "http:\/\/localhost:8000\/api\/user",
                        "method": "GET",
                        "header": [
                            {
                                "key": "Content-Type",
                                "value": "application\/json"
                            },
                            {
                                "key": "Accept",
                                "value": "application\/json"
                            }
                        ],
                        "body": {
                            "mode": "raw",
                            "raw": "[]"
                        },
                        "description": "GET \/api\/{resource}.",
                        "response": []
                    }
                },
                {
                    "name": "Store a newly created resource in storage.",
                    "request": {
                        "url": "http:\/\/localhost:8000\/api\/user",
                        "method": "POST",
                        "header": [
                            {
                                "key": "Content-Type",
                                "value": "application\/json"
                            },
                            {
                                "key": "Accept",
                                "value": "application\/json"
                            }
                        ],
                        "body": {
                            "mode": "raw",
                            "raw": "[]"
                        },
                        "description": "POST \/api\/{resource}.",
                        "response": []
                    }
                },
                {
                    "name": "Display the specified resource.",
                    "request": {
                        "url": "http:\/\/localhost:8000\/api\/user\/{user}",
                        "method": "GET",
                        "header": [
                            {
                                "key": "Content-Type",
                                "value": "application\/json"
                            },
                            {
                                "key": "Accept",
                                "value": "application\/json"
                            }
                        ],
                        "body": {
                            "mode": "raw",
                            "raw": "[]"
                        },
                        "description": "GET \/api\/{resource}\/{id}.",
                        "response": []
                    }
                },
                {
                    "name": "Update the specified resource in storage.",
                    "request": {
                        "url": "http:\/\/localhost:8000\/api\/user\/{user}",
                        "method": "PUT",
                        "header": [
                            {
                                "key": "Content-Type",
                                "value": "application\/json"
                            },
                            {
                                "key": "Accept",
                                "value": "application\/json"
                            }
                        ],
                        "body": {
                            "mode": "raw",
                            "raw": "[]"
                        },
                        "description": "PUT \/api\/{resource}\/{id}.",
                        "response": []
                    }
                },
                {
                    "name": "Remove the specified resource from storage.",
                    "request": {
                        "url": "http:\/\/localhost:8000\/api\/user\/{user}",
                        "method": "DELETE",
                        "header": [
                            {
                                "key": "Content-Type",
                                "value": "application\/json"
                            },
                            {
                                "key": "Accept",
                                "value": "application\/json"
                            }
                        ],
                        "body": {
                            "mode": "raw",
                            "raw": "[]"
                        },
                        "description": "DELETE \/api\/{resource}\/{id}.",
                        "response": []
                    }
                },
                {
                    "name": "Display a listing of the resource.",
                    "request": {
                        "url": "http:\/\/localhost:8000\/api\/role",
                        "method": "GET",
                        "header": [
                            {
                                "key": "Content-Type",
                                "value": "application\/json"
                            },
                            {
                                "key": "Accept",
                                "value": "application\/json"
                            }
                        ],
                        "body": {
                            "mode": "raw",
                            "raw": "[]"
                        },
                        "description": "GET \/api\/{resource}.",
                        "response": []
                    }
                },
                {
                    "name": "Store a newly created resource in storage.",
                    "request": {
                        "url": "http:\/\/localhost:8000\/api\/role",
                        "method": "POST",
                        "header": [
                            {
                                "key": "Content-Type",
                                "value": "application\/json"
                            },
                            {
                                "key": "Accept",
                                "value": "application\/json"
                            }
                        ],
                        "body": {
                            "mode": "raw",
                            "raw": "[]"
                        },
                        "description": "POST \/api\/{resource}.",
                        "response": []
                    }
                },
                {
                    "name": "Display the specified resource.",
                    "request": {
                        "url": "http:\/\/localhost:8000\/api\/role\/{role}",
                        "method": "GET",
                        "header": [
                            {
                                "key": "Content-Type",
                                "value": "application\/json"
                            },
                            {
                                "key": "Accept",
                                "value": "application\/json"
                            }
                        ],
                        "body": {
                            "mode": "raw",
                            "raw": "[]"
                        },
                        "description": "GET \/api\/{resource}\/{id}.",
                        "response": []
                    }
                },
                {
                    "name": "Update the specified resource in storage.",
                    "request": {
                        "url": "http:\/\/localhost:8000\/api\/role\/{role}",
                        "method": "PUT",
                        "header": [
                            {
                                "key": "Content-Type",
                                "value": "application\/json"
                            },
                            {
                                "key": "Accept",
                                "value": "application\/json"
                            }
                        ],
                        "body": {
                            "mode": "raw",
                            "raw": "[]"
                        },
                        "description": "PUT \/api\/{resource}\/{id}.",
                        "response": []
                    }
                },
                {
                    "name": "Remove the specified resource from storage.",
                    "request": {
                        "url": "http:\/\/localhost:8000\/api\/role\/{role}",
                        "method": "DELETE",
                        "header": [
                            {
                                "key": "Content-Type",
                                "value": "application\/json"
                            },
                            {
                                "key": "Accept",
                                "value": "application\/json"
                            }
                        ],
                        "body": {
                            "mode": "raw",
                            "raw": "[]"
                        },
                        "description": "DELETE \/api\/{resource}\/{id}.",
                        "response": []
                    }
                },
                {
                    "name": "Display a listing of the resource.",
                    "request": {
                        "url": "http:\/\/localhost:8000\/api\/account",
                        "method": "GET",
                        "header": [
                            {
                                "key": "Content-Type",
                                "value": "application\/json"
                            },
                            {
                                "key": "Accept",
                                "value": "application\/json"
                            }
                        ],
                        "body": {
                            "mode": "raw",
                            "raw": "[]"
                        },
                        "description": "GET \/api\/{resource}.",
                        "response": []
                    }
                },
                {
                    "name": "Store a newly created resource in storage.",
                    "request": {
                        "url": "http:\/\/localhost:8000\/api\/account",
                        "method": "POST",
                        "header": [
                            {
                                "key": "Content-Type",
                                "value": "application\/json"
                            },
                            {
                                "key": "Accept",
                                "value": "application\/json"
                            }
                        ],
                        "body": {
                            "mode": "raw",
                            "raw": "[]"
                        },
                        "description": "POST \/api\/{resource}.",
                        "response": []
                    }
                },
                {
                    "name": "Display the specified resource.",
                    "request": {
                        "url": "http:\/\/localhost:8000\/api\/account\/{account}",
                        "method": "GET",
                        "header": [
                            {
                                "key": "Content-Type",
                                "value": "application\/json"
                            },
                            {
                                "key": "Accept",
                                "value": "application\/json"
                            }
                        ],
                        "body": {
                            "mode": "raw",
                            "raw": "[]"
                        },
                        "description": "GET \/api\/{resource}\/{id}.",
                        "response": []
                    }
                },
                {
                    "name": "Update the specified resource in storage.",
                    "request": {
                        "url": "http:\/\/localhost:8000\/api\/account\/{account}",
                        "method": "PUT",
                        "header": [
                            {
                                "key": "Content-Type",
                                "value": "application\/json"
                            },
                            {
                                "key": "Accept",
                                "value": "application\/json"
                            }
                        ],
                        "body": {
                            "mode": "raw",
                            "raw": "[]"
                        },
                        "description": "PUT \/api\/{resource}\/{id}.",
                        "response": []
                    }
                },
                {
                    "name": "Remove the specified resource from storage.",
                    "request": {
                        "url": "http:\/\/localhost:8000\/api\/account\/{account}",
                        "method": "DELETE",
                        "header": [
                            {
                                "key": "Content-Type",
                                "value": "application\/json"
                            },
                            {
                                "key": "Accept",
                                "value": "application\/json"
                            }
                        ],
                        "body": {
                            "mode": "raw",
                            "raw": "[]"
                        },
                        "description": "DELETE \/api\/{resource}\/{id}.",
                        "response": []
                    }
                },
                {
                    "name": "Display a listing of the resource.",
                    "request": {
                        "url": "http:\/\/localhost:8000\/api\/employee",
                        "method": "GET",
                        "header": [
                            {
                                "key": "Content-Type",
                                "value": "application\/json"
                            },
                            {
                                "key": "Accept",
                                "value": "application\/json"
                            }
                        ],
                        "body": {
                            "mode": "raw",
                            "raw": "[]"
                        },
                        "description": "GET \/api\/{resource}.",
                        "response": []
                    }
                },
                {
                    "name": "Store a newly created resource in storage.",
                    "request": {
                        "url": "http:\/\/localhost:8000\/api\/employee",
                        "method": "POST",
                        "header": [
                            {
                                "key": "Content-Type",
                                "value": "application\/json"
                            },
                            {
                                "key": "Accept",
                                "value": "application\/json"
                            }
                        ],
                        "body": {
                            "mode": "raw",
                            "raw": "[]"
                        },
                        "description": "POST \/api\/{resource}.",
                        "response": []
                    }
                },
                {
                    "name": "Display the specified resource.",
                    "request": {
                        "url": "http:\/\/localhost:8000\/api\/employee\/{employee}",
                        "method": "GET",
                        "header": [
                            {
                                "key": "Content-Type",
                                "value": "application\/json"
                            },
                            {
                                "key": "Accept",
                                "value": "application\/json"
                            }
                        ],
                        "body": {
                            "mode": "raw",
                            "raw": "[]"
                        },
                        "description": "GET \/api\/{resource}\/{id}.",
                        "response": []
                    }
                },
                {
                    "name": "Update the specified resource in storage.",
                    "request": {
                        "url": "http:\/\/localhost:8000\/api\/employee\/{employee}",
                        "method": "PUT",
                        "header": [
                            {
                                "key": "Content-Type",
                                "value": "application\/json"
                            },
                            {
                                "key": "Accept",
                                "value": "application\/json"
                            }
                        ],
                        "body": {
                            "mode": "raw",
                            "raw": "[]"
                        },
                        "description": "PUT \/api\/{resource}\/{id}.",
                        "response": []
                    }
                },
                {
                    "name": "Remove the specified resource from storage.",
                    "request": {
                        "url": "http:\/\/localhost:8000\/api\/employee\/{employee}",
                        "method": "DELETE",
                        "header": [
                            {
                                "key": "Content-Type",
                                "value": "application\/json"
                            },
                            {
                                "key": "Accept",
                                "value": "application\/json"
                            }
                        ],
                        "body": {
                            "mode": "raw",
                            "raw": "[]"
                        },
                        "description": "DELETE \/api\/{resource}\/{id}.",
                        "response": []
                    }
                },
                {
                    "name": "Display a listing of the resource.",
                    "request": {
                        "url": "http:\/\/localhost:8000\/api\/customer",
                        "method": "GET",
                        "header": [
                            {
                                "key": "Content-Type",
                                "value": "application\/json"
                            },
                            {
                                "key": "Accept",
                                "value": "application\/json"
                            }
                        ],
                        "body": {
                            "mode": "raw",
                            "raw": "[]"
                        },
                        "description": "GET \/api\/{resource}.",
                        "response": []
                    }
                },
                {
                    "name": "Store a newly created resource in storage.",
                    "request": {
                        "url": "http:\/\/localhost:8000\/api\/customer",
                        "method": "POST",
                        "header": [
                            {
                                "key": "Content-Type",
                                "value": "application\/json"
                            },
                            {
                                "key": "Accept",
                                "value": "application\/json"
                            }
                        ],
                        "body": {
                            "mode": "raw",
                            "raw": "[]"
                        },
                        "description": "POST \/api\/{resource}.",
                        "response": []
                    }
                },
                {
                    "name": "Display the specified resource.",
                    "request": {
                        "url": "http:\/\/localhost:8000\/api\/customer\/{customer}",
                        "method": "GET",
                        "header": [
                            {
                                "key": "Content-Type",
                                "value": "application\/json"
                            },
                            {
                                "key": "Accept",
                                "value": "application\/json"
                            }
                        ],
                        "body": {
                            "mode": "raw",
                            "raw": "[]"
                        },
                        "description": "GET \/api\/{resource}\/{id}.",
                        "response": []
                    }
                },
                {
                    "name": "Update the specified resource in storage.",
                    "request": {
                        "url": "http:\/\/localhost:8000\/api\/customer\/{customer}",
                        "method": "PUT",
                        "header": [
                            {
                                "key": "Content-Type",
                                "value": "application\/json"
                            },
                            {
                                "key": "Accept",
                                "value": "application\/json"
                            }
                        ],
                        "body": {
                            "mode": "raw",
                            "raw": "[]"
                        },
                        "description": "PUT \/api\/{resource}\/{id}.",
                        "response": []
                    }
                },
                {
                    "name": "Remove the specified resource from storage.",
                    "request": {
                        "url": "http:\/\/localhost:8000\/api\/customer\/{customer}",
                        "method": "DELETE",
                        "header": [
                            {
                                "key": "Content-Type",
                                "value": "application\/json"
                            },
                            {
                                "key": "Accept",
                                "value": "application\/json"
                            }
                        ],
                        "body": {
                            "mode": "raw",
                            "raw": "[]"
                        },
                        "description": "DELETE \/api\/{resource}\/{id}.",
                        "response": []
                    }
                },
                {
                    "name": "Display a listing of the resource.",
                    "request": {
                        "url": "http:\/\/localhost:8000\/api\/industry",
                        "method": "GET",
                        "header": [
                            {
                                "key": "Content-Type",
                                "value": "application\/json"
                            },
                            {
                                "key": "Accept",
                                "value": "application\/json"
                            }
                        ],
                        "body": {
                            "mode": "raw",
                            "raw": "[]"
                        },
                        "description": "GET \/api\/{resource}.",
                        "response": []
                    }
                },
                {
                    "name": "Store a newly created resource in storage.",
                    "request": {
                        "url": "http:\/\/localhost:8000\/api\/industry",
                        "method": "POST",
                        "header": [
                            {
                                "key": "Content-Type",
                                "value": "application\/json"
                            },
                            {
                                "key": "Accept",
                                "value": "application\/json"
                            }
                        ],
                        "body": {
                            "mode": "raw",
                            "raw": "[]"
                        },
                        "description": "POST \/api\/{resource}.",
                        "response": []
                    }
                },
                {
                    "name": "Display the specified resource.",
                    "request": {
                        "url": "http:\/\/localhost:8000\/api\/industry\/{industry}",
                        "method": "GET",
                        "header": [
                            {
                                "key": "Content-Type",
                                "value": "application\/json"
                            },
                            {
                                "key": "Accept",
                                "value": "application\/json"
                            }
                        ],
                        "body": {
                            "mode": "raw",
                            "raw": "[]"
                        },
                        "description": "GET \/api\/{resource}\/{id}.",
                        "response": []
                    }
                },
                {
                    "name": "Update the specified resource in storage.",
                    "request": {
                        "url": "http:\/\/localhost:8000\/api\/industry\/{industry}",
                        "method": "PUT",
                        "header": [
                            {
                                "key": "Content-Type",
                                "value": "application\/json"
                            },
                            {
                                "key": "Accept",
                                "value": "application\/json"
                            }
                        ],
                        "body": {
                            "mode": "raw",
                            "raw": "[]"
                        },
                        "description": "PUT \/api\/{resource}\/{id}.",
                        "response": []
                    }
                },
                {
                    "name": "Remove the specified resource from storage.",
                    "request": {
                        "url": "http:\/\/localhost:8000\/api\/industry\/{industry}",
                        "method": "DELETE",
                        "header": [
                            {
                                "key": "Content-Type",
                                "value": "application\/json"
                            },
                            {
                                "key": "Accept",
                                "value": "application\/json"
                            }
                        ],
                        "body": {
                            "mode": "raw",
                            "raw": "[]"
                        },
                        "description": "DELETE \/api\/{resource}\/{id}.",
                        "response": []
                    }
                },
                {
                    "name": "Display a listing of the resource.",
                    "request": {
                        "url": "http:\/\/localhost:8000\/api\/category",
                        "method": "GET",
                        "header": [
                            {
                                "key": "Content-Type",
                                "value": "application\/json"
                            },
                            {
                                "key": "Accept",
                                "value": "application\/json"
                            }
                        ],
                        "body": {
                            "mode": "raw",
                            "raw": "[]"
                        },
                        "description": "GET \/api\/{resource}.",
                        "response": []
                    }
                },
                {
                    "name": "Store a newly created resource in storage.",
                    "request": {
                        "url": "http:\/\/localhost:8000\/api\/category",
                        "method": "POST",
                        "header": [
                            {
                                "key": "Content-Type",
                                "value": "application\/json"
                            },
                            {
                                "key": "Accept",
                                "value": "application\/json"
                            }
                        ],
                        "body": {
                            "mode": "raw",
                            "raw": "[]"
                        },
                        "description": "POST \/api\/{resource}.",
                        "response": []
                    }
                },
                {
                    "name": "Display the specified resource.",
                    "request": {
                        "url": "http:\/\/localhost:8000\/api\/category\/{category}",
                        "method": "GET",
                        "header": [
                            {
                                "key": "Content-Type",
                                "value": "application\/json"
                            },
                            {
                                "key": "Accept",
                                "value": "application\/json"
                            }
                        ],
                        "body": {
                            "mode": "raw",
                            "raw": "[]"
                        },
                        "description": "GET \/api\/{resource}\/{id}.",
                        "response": []
                    }
                },
                {
                    "name": "Update the specified resource in storage.",
                    "request": {
                        "url": "http:\/\/localhost:8000\/api\/category\/{category}",
                        "method": "PUT",
                        "header": [
                            {
                                "key": "Content-Type",
                                "value": "application\/json"
                            },
                            {
                                "key": "Accept",
                                "value": "application\/json"
                            }
                        ],
                        "body": {
                            "mode": "raw",
                            "raw": "[]"
                        },
                        "description": "PUT \/api\/{resource}\/{id}.",
                        "response": []
                    }
                },
                {
                    "name": "Remove the specified resource from storage.",
                    "request": {
                        "url": "http:\/\/localhost:8000\/api\/category\/{category}",
                        "method": "DELETE",
                        "header": [
                            {
                                "key": "Content-Type",
                                "value": "application\/json"
                            },
                            {
                                "key": "Accept",
                                "value": "application\/json"
                            }
                        ],
                        "body": {
                            "mode": "raw",
                            "raw": "[]"
                        },
                        "description": "DELETE \/api\/{resource}\/{id}.",
                        "response": []
                    }
                },
                {
                    "name": "Display a listing of the resource.",
                    "request": {
                        "url": "http:\/\/localhost:8000\/api\/service",
                        "method": "GET",
                        "header": [
                            {
                                "key": "Content-Type",
                                "value": "application\/json"
                            },
                            {
                                "key": "Accept",
                                "value": "application\/json"
                            }
                        ],
                        "body": {
                            "mode": "raw",
                            "raw": "[]"
                        },
                        "description": "GET \/api\/{resource}.",
                        "response": []
                    }
                },
                {
                    "name": "Store a newly created resource in storage.",
                    "request": {
                        "url": "http:\/\/localhost:8000\/api\/service",
                        "method": "POST",
                        "header": [
                            {
                                "key": "Content-Type",
                                "value": "application\/json"
                            },
                            {
                                "key": "Accept",
                                "value": "application\/json"
                            }
                        ],
                        "body": {
                            "mode": "raw",
                            "raw": "[]"
                        },
                        "description": "POST \/api\/{resource}.",
                        "response": []
                    }
                },
                {
                    "name": "Display the specified resource.",
                    "request": {
                        "url": "http:\/\/localhost:8000\/api\/service\/{service}",
                        "method": "GET",
                        "header": [
                            {
                                "key": "Content-Type",
                                "value": "application\/json"
                            },
                            {
                                "key": "Accept",
                                "value": "application\/json"
                            }
                        ],
                        "body": {
                            "mode": "raw",
                            "raw": "[]"
                        },
                        "description": "GET \/api\/{resource}\/{id}.",
                        "response": []
                    }
                },
                {
                    "name": "Update the specified resource in storage.",
                    "request": {
                        "url": "http:\/\/localhost:8000\/api\/service\/{service}",
                        "method": "PUT",
                        "header": [
                            {
                                "key": "Content-Type",
                                "value": "application\/json"
                            },
                            {
                                "key": "Accept",
                                "value": "application\/json"
                            }
                        ],
                        "body": {
                            "mode": "raw",
                            "raw": "[]"
                        },
                        "description": "PUT \/api\/{resource}\/{id}.",
                        "response": []
                    }
                },
                {
                    "name": "Remove the specified resource from storage.",
                    "request": {
                        "url": "http:\/\/localhost:8000\/api\/service\/{service}",
                        "method": "DELETE",
                        "header": [
                            {
                                "key": "Content-Type",
                                "value": "application\/json"
                            },
                            {
                                "key": "Accept",
                                "value": "application\/json"
                            }
                        ],
                        "body": {
                            "mode": "raw",
                            "raw": "[]"
                        },
                        "description": "DELETE \/api\/{resource}\/{id}.",
                        "response": []
                    }
                },
                {
                    "name": "Display a listing of the resource.",
                    "request": {
                        "url": "http:\/\/localhost:8000\/api\/address",
                        "method": "GET",
                        "header": [
                            {
                                "key": "Content-Type",
                                "value": "application\/json"
                            },
                            {
                                "key": "Accept",
                                "value": "application\/json"
                            }
                        ],
                        "body": {
                            "mode": "raw",
                            "raw": "[]"
                        },
                        "description": "GET \/api\/{resource}.",
                        "response": []
                    }
                },
                {
                    "name": "Store a newly created resource in storage.",
                    "request": {
                        "url": "http:\/\/localhost:8000\/api\/address",
                        "method": "POST",
                        "header": [
                            {
                                "key": "Content-Type",
                                "value": "application\/json"
                            },
                            {
                                "key": "Accept",
                                "value": "application\/json"
                            }
                        ],
                        "body": {
                            "mode": "raw",
                            "raw": "[]"
                        },
                        "description": "POST \/api\/{resource}.",
                        "response": []
                    }
                },
                {
                    "name": "Display the specified resource.",
                    "request": {
                        "url": "http:\/\/localhost:8000\/api\/address\/{address}",
                        "method": "GET",
                        "header": [
                            {
                                "key": "Content-Type",
                                "value": "application\/json"
                            },
                            {
                                "key": "Accept",
                                "value": "application\/json"
                            }
                        ],
                        "body": {
                            "mode": "raw",
                            "raw": "[]"
                        },
                        "description": "GET \/api\/{resource}\/{id}.",
                        "response": []
                    }
                },
                {
                    "name": "Update the specified resource in storage.",
                    "request": {
                        "url": "http:\/\/localhost:8000\/api\/address\/{address}",
                        "method": "PUT",
                        "header": [
                            {
                                "key": "Content-Type",
                                "value": "application\/json"
                            },
                            {
                                "key": "Accept",
                                "value": "application\/json"
                            }
                        ],
                        "body": {
                            "mode": "raw",
                            "raw": "[]"
                        },
                        "description": "PUT \/api\/{resource}\/{id}.",
                        "response": []
                    }
                },
                {
                    "name": "Remove the specified resource from storage.",
                    "request": {
                        "url": "http:\/\/localhost:8000\/api\/address\/{address}",
                        "method": "DELETE",
                        "header": [
                            {
                                "key": "Content-Type",
                                "value": "application\/json"
                            },
                            {
                                "key": "Accept",
                                "value": "application\/json"
                            }
                        ],
                        "body": {
                            "mode": "raw",
                            "raw": "[]"
                        },
                        "description": "DELETE \/api\/{resource}\/{id}.",
                        "response": []
                    }
                },
                {
                    "name": "Display a listing of the resource.",
                    "request": {
                        "url": "http:\/\/localhost:8000\/api\/customer-type",
                        "method": "GET",
                        "header": [
                            {
                                "key": "Content-Type",
                                "value": "application\/json"
                            },
                            {
                                "key": "Accept",
                                "value": "application\/json"
                            }
                        ],
                        "body": {
                            "mode": "raw",
                            "raw": "[]"
                        },
                        "description": "GET \/api\/{resource}.",
                        "response": []
                    }
                },
                {
                    "name": "Store a newly created resource in storage.",
                    "request": {
                        "url": "http:\/\/localhost:8000\/api\/customer-type",
                        "method": "POST",
                        "header": [
                            {
                                "key": "Content-Type",
                                "value": "application\/json"
                            },
                            {
                                "key": "Accept",
                                "value": "application\/json"
                            }
                        ],
                        "body": {
                            "mode": "raw",
                            "raw": "[]"
                        },
                        "description": "POST \/api\/{resource}.",
                        "response": []
                    }
                },
                {
                    "name": "Display the specified resource.",
                    "request": {
                        "url": "http:\/\/localhost:8000\/api\/customer-type\/{customer_type}",
                        "method": "GET",
                        "header": [
                            {
                                "key": "Content-Type",
                                "value": "application\/json"
                            },
                            {
                                "key": "Accept",
                                "value": "application\/json"
                            }
                        ],
                        "body": {
                            "mode": "raw",
                            "raw": "[]"
                        },
                        "description": "GET \/api\/{resource}\/{id}.",
                        "response": []
                    }
                },
                {
                    "name": "Update the specified resource in storage.",
                    "request": {
                        "url": "http:\/\/localhost:8000\/api\/customer-type\/{customer_type}",
                        "method": "PUT",
                        "header": [
                            {
                                "key": "Content-Type",
                                "value": "application\/json"
                            },
                            {
                                "key": "Accept",
                                "value": "application\/json"
                            }
                        ],
                        "body": {
                            "mode": "raw",
                            "raw": "[]"
                        },
                        "description": "PUT \/api\/{resource}\/{id}.",
                        "response": []
                    }
                },
                {
                    "name": "Remove the specified resource from storage.",
                    "request": {
                        "url": "http:\/\/localhost:8000\/api\/customer-type\/{customer_type}",
                        "method": "DELETE",
                        "header": [
                            {
                                "key": "Content-Type",
                                "value": "application\/json"
                            },
                            {
                                "key": "Accept",
                                "value": "application\/json"
                            }
                        ],
                        "body": {
                            "mode": "raw",
                            "raw": "[]"
                        },
                        "description": "DELETE \/api\/{resource}\/{id}.",
                        "response": []
                    }
                },
                {
                    "name": "Display a listing of the resource.",
                    "request": {
                        "url": "http:\/\/localhost:8000\/api\/tag",
                        "method": "GET",
                        "header": [
                            {
                                "key": "Content-Type",
                                "value": "application\/json"
                            },
                            {
                                "key": "Accept",
                                "value": "application\/json"
                            }
                        ],
                        "body": {
                            "mode": "raw",
                            "raw": "[]"
                        },
                        "description": "GET \/api\/{resource}.",
                        "response": []
                    }
                },
                {
                    "name": "Store a newly created resource in storage.",
                    "request": {
                        "url": "http:\/\/localhost:8000\/api\/tag",
                        "method": "POST",
                        "header": [
                            {
                                "key": "Content-Type",
                                "value": "application\/json"
                            },
                            {
                                "key": "Accept",
                                "value": "application\/json"
                            }
                        ],
                        "body": {
                            "mode": "raw",
                            "raw": "[]"
                        },
                        "description": "POST \/api\/{resource}.",
                        "response": []
                    }
                },
                {
                    "name": "Display the specified resource.",
                    "request": {
                        "url": "http:\/\/localhost:8000\/api\/tag\/{tag}",
                        "method": "GET",
                        "header": [
                            {
                                "key": "Content-Type",
                                "value": "application\/json"
                            },
                            {
                                "key": "Accept",
                                "value": "application\/json"
                            }
                        ],
                        "body": {
                            "mode": "raw",
                            "raw": "[]"
                        },
                        "description": "GET \/api\/{resource}\/{id}.",
                        "response": []
                    }
                },
                {
                    "name": "Update the specified resource in storage.",
                    "request": {
                        "url": "http:\/\/localhost:8000\/api\/tag\/{tag}",
                        "method": "PUT",
                        "header": [
                            {
                                "key": "Content-Type",
                                "value": "application\/json"
                            },
                            {
                                "key": "Accept",
                                "value": "application\/json"
                            }
                        ],
                        "body": {
                            "mode": "raw",
                            "raw": "[]"
                        },
                        "description": "PUT \/api\/{resource}\/{id}.",
                        "response": []
                    }
                },
                {
                    "name": "Remove the specified resource from storage.",
                    "request": {
                        "url": "http:\/\/localhost:8000\/api\/tag\/{tag}",
                        "method": "DELETE",
                        "header": [
                            {
                                "key": "Content-Type",
                                "value": "application\/json"
                            },
                            {
                                "key": "Accept",
                                "value": "application\/json"
                            }
                        ],
                        "body": {
                            "mode": "raw",
                            "raw": "[]"
                        },
                        "description": "DELETE \/api\/{resource}\/{id}.",
                        "response": []
                    }
                },
                {
                    "name": "Display a listing of the resource.",
                    "request": {
                        "url": "http:\/\/localhost:8000\/api\/notification",
                        "method": "GET",
                        "header": [
                            {
                                "key": "Content-Type",
                                "value": "application\/json"
                            },
                            {
                                "key": "Accept",
                                "value": "application\/json"
                            }
                        ],
                        "body": {
                            "mode": "raw",
                            "raw": "[]"
                        },
                        "description": "GET \/api\/{resource}.",
                        "response": []
                    }
                },
                {
                    "name": "Store a newly created resource in storage.",
                    "request": {
                        "url": "http:\/\/localhost:8000\/api\/notification",
                        "method": "POST",
                        "header": [
                            {
                                "key": "Content-Type",
                                "value": "application\/json"
                            },
                            {
                                "key": "Accept",
                                "value": "application\/json"
                            }
                        ],
                        "body": {
                            "mode": "raw",
                            "raw": "[]"
                        },
                        "description": "POST \/api\/{resource}.",
                        "response": []
                    }
                },
                {
                    "name": "Display the specified resource.",
                    "request": {
                        "url": "http:\/\/localhost:8000\/api\/notification\/{notification}",
                        "method": "GET",
                        "header": [
                            {
                                "key": "Content-Type",
                                "value": "application\/json"
                            },
                            {
                                "key": "Accept",
                                "value": "application\/json"
                            }
                        ],
                        "body": {
                            "mode": "raw",
                            "raw": "[]"
                        },
                        "description": "GET \/api\/{resource}\/{id}.",
                        "response": []
                    }
                },
                {
                    "name": "Update the specified resource in storage.",
                    "request": {
                        "url": "http:\/\/localhost:8000\/api\/notification\/{notification}",
                        "method": "PUT",
                        "header": [
                            {
                                "key": "Content-Type",
                                "value": "application\/json"
                            },
                            {
                                "key": "Accept",
                                "value": "application\/json"
                            }
                        ],
                        "body": {
                            "mode": "raw",
                            "raw": "[]"
                        },
                        "description": "PUT \/api\/{resource}\/{id}.",
                        "response": []
                    }
                },
                {
                    "name": "Remove the specified resource from storage.",
                    "request": {
                        "url": "http:\/\/localhost:8000\/api\/notification\/{notification}",
                        "method": "DELETE",
                        "header": [
                            {
                                "key": "Content-Type",
                                "value": "application\/json"
                            },
                            {
                                "key": "Accept",
                                "value": "application\/json"
                            }
                        ],
                        "body": {
                            "mode": "raw",
                            "raw": "[]"
                        },
                        "description": "DELETE \/api\/{resource}\/{id}.",
                        "response": []
                    }
                },
                {
                    "name": "Display a listing of the resource.",
                    "request": {
                        "url": "http:\/\/localhost:8000\/api\/payment-transaction",
                        "method": "GET",
                        "header": [
                            {
                                "key": "Content-Type",
                                "value": "application\/json"
                            },
                            {
                                "key": "Accept",
                                "value": "application\/json"
                            }
                        ],
                        "body": {
                            "mode": "raw",
                            "raw": "[]"
                        },
                        "description": "GET \/api\/{resource}.",
                        "response": []
                    }
                },
                {
                    "name": "Store a newly created resource in storage.",
                    "request": {
                        "url": "http:\/\/localhost:8000\/api\/payment-transaction",
                        "method": "POST",
                        "header": [
                            {
                                "key": "Content-Type",
                                "value": "application\/json"
                            },
                            {
                                "key": "Accept",
                                "value": "application\/json"
                            }
                        ],
                        "body": {
                            "mode": "raw",
                            "raw": "[]"
                        },
                        "description": "POST \/api\/{resource}.",
                        "response": []
                    }
                },
                {
                    "name": "Display the specified resource.",
                    "request": {
                        "url": "http:\/\/localhost:8000\/api\/payment-transaction\/{payment_transaction}",
                        "method": "GET",
                        "header": [
                            {
                                "key": "Content-Type",
                                "value": "application\/json"
                            },
                            {
                                "key": "Accept",
                                "value": "application\/json"
                            }
                        ],
                        "body": {
                            "mode": "raw",
                            "raw": "[]"
                        },
                        "description": "GET \/api\/{resource}\/{id}.",
                        "response": []
                    }
                },
                {
                    "name": "Update the specified resource in storage.",
                    "request": {
                        "url": "http:\/\/localhost:8000\/api\/payment-transaction\/{payment_transaction}",
                        "method": "PUT",
                        "header": [
                            {
                                "key": "Content-Type",
                                "value": "application\/json"
                            },
                            {
                                "key": "Accept",
                                "value": "application\/json"
                            }
                        ],
                        "body": {
                            "mode": "raw",
                            "raw": "[]"
                        },
                        "description": "PUT \/api\/{resource}\/{id}.",
                        "response": []
                    }
                },
                {
                    "name": "Remove the specified resource from storage.",
                    "request": {
                        "url": "http:\/\/localhost:8000\/api\/payment-transaction\/{payment_transaction}",
                        "method": "DELETE",
                        "header": [
                            {
                                "key": "Content-Type",
                                "value": "application\/json"
                            },
                            {
                                "key": "Accept",
                                "value": "application\/json"
                            }
                        ],
                        "body": {
                            "mode": "raw",
                            "raw": "[]"
                        },
                        "description": "DELETE \/api\/{resource}\/{id}.",
                        "response": []
                    }
                },
                {
                    "name": "Display a listing of the resource.",
                    "request": {
                        "url": "http:\/\/localhost:8000\/api\/business-hour",
                        "method": "GET",
                        "header": [
                            {
                                "key": "Content-Type",
                                "value": "application\/json"
                            },
                            {
                                "key": "Accept",
                                "value": "application\/json"
                            }
                        ],
                        "body": {
                            "mode": "raw",
                            "raw": "[]"
                        },
                        "description": "GET \/api\/{resource}.",
                        "response": []
                    }
                },
                {
                    "name": "Store a newly created resource in storage.",
                    "request": {
                        "url": "http:\/\/localhost:8000\/api\/business-hour",
                        "method": "POST",
                        "header": [
                            {
                                "key": "Content-Type",
                                "value": "application\/json"
                            },
                            {
                                "key": "Accept",
                                "value": "application\/json"
                            }
                        ],
                        "body": {
                            "mode": "raw",
                            "raw": "[]"
                        },
                        "description": "POST \/api\/{resource}.",
                        "response": []
                    }
                },
                {
                    "name": "Display the specified resource.",
                    "request": {
                        "url": "http:\/\/localhost:8000\/api\/business-hour\/{business_hour}",
                        "method": "GET",
                        "header": [
                            {
                                "key": "Content-Type",
                                "value": "application\/json"
                            },
                            {
                                "key": "Accept",
                                "value": "application\/json"
                            }
                        ],
                        "body": {
                            "mode": "raw",
                            "raw": "[]"
                        },
                        "description": "GET \/api\/{resource}\/{id}.",
                        "response": []
                    }
                },
                {
                    "name": "Update the specified resource in storage.",
                    "request": {
                        "url": "http:\/\/localhost:8000\/api\/business-hour\/{business_hour}",
                        "method": "PUT",
                        "header": [
                            {
                                "key": "Content-Type",
                                "value": "application\/json"
                            },
                            {
                                "key": "Accept",
                                "value": "application\/json"
                            }
                        ],
                        "body": {
                            "mode": "raw",
                            "raw": "[]"
                        },
                        "description": "PUT \/api\/{resource}\/{id}.",
                        "response": []
                    }
                },
                {
                    "name": "Remove the specified resource from storage.",
                    "request": {
                        "url": "http:\/\/localhost:8000\/api\/business-hour\/{business_hour}",
                        "method": "DELETE",
                        "header": [
                            {
                                "key": "Content-Type",
                                "value": "application\/json"
                            },
                            {
                                "key": "Accept",
                                "value": "application\/json"
                            }
                        ],
                        "body": {
                            "mode": "raw",
                            "raw": "[]"
                        },
                        "description": "DELETE \/api\/{resource}\/{id}.",
                        "response": []
                    }
                },
                {
                    "name": "Display a listing of the resource.",
                    "request": {
                        "url": "http:\/\/localhost:8000\/api\/service-area",
                        "method": "GET",
                        "header": [
                            {
                                "key": "Content-Type",
                                "value": "application\/json"
                            },
                            {
                                "key": "Accept",
                                "value": "application\/json"
                            }
                        ],
                        "body": {
                            "mode": "raw",
                            "raw": "[]"
                        },
                        "description": "GET \/api\/{resource}.",
                        "response": []
                    }
                },
                {
                    "name": "Store a newly created resource in storage.",
                    "request": {
                        "url": "http:\/\/localhost:8000\/api\/service-area",
                        "method": "POST",
                        "header": [
                            {
                                "key": "Content-Type",
                                "value": "application\/json"
                            },
                            {
                                "key": "Accept",
                                "value": "application\/json"
                            }
                        ],
                        "body": {
                            "mode": "raw",
                            "raw": "[]"
                        },
                        "description": "POST \/api\/{resource}.",
                        "response": []
                    }
                },
                {
                    "name": "Display the specified resource.",
                    "request": {
                        "url": "http:\/\/localhost:8000\/api\/service-area\/{service_area}",
                        "method": "GET",
                        "header": [
                            {
                                "key": "Content-Type",
                                "value": "application\/json"
                            },
                            {
                                "key": "Accept",
                                "value": "application\/json"
                            }
                        ],
                        "body": {
                            "mode": "raw",
                            "raw": "[]"
                        },
                        "description": "GET \/api\/{resource}\/{id}.",
                        "response": []
                    }
                },
                {
                    "name": "Update the specified resource in storage.",
                    "request": {
                        "url": "http:\/\/localhost:8000\/api\/service-area\/{service_area}",
                        "method": "PUT",
                        "header": [
                            {
                                "key": "Content-Type",
                                "value": "application\/json"
                            },
                            {
                                "key": "Accept",
                                "value": "application\/json"
                            }
                        ],
                        "body": {
                            "mode": "raw",
                            "raw": "[]"
                        },
                        "description": "PUT \/api\/{resource}\/{id}.",
                        "response": []
                    }
                },
                {
                    "name": "Remove the specified resource from storage.",
                    "request": {
                        "url": "http:\/\/localhost:8000\/api\/service-area\/{service_area}",
                        "method": "DELETE",
                        "header": [
                            {
                                "key": "Content-Type",
                                "value": "application\/json"
                            },
                            {
                                "key": "Accept",
                                "value": "application\/json"
                            }
                        ],
                        "body": {
                            "mode": "raw",
                            "raw": "[]"
                        },
                        "description": "DELETE \/api\/{resource}\/{id}.",
                        "response": []
                    }
                }
            ]
        }
    ]
}