"account_id", "group", "slug", "name", "notification_type", "context", "is_enabled"
2, "Employee Notification", "employee-account-notification", "Employee Account Notification", 1, "Hi <EMPLOYEE_FIRST_NAME>, your account has been created.", 1
2, "Employee Notification", "job-assignment-notification", "Job Assignment Notification", 1, "Hi <EMPLOYEE_FIRST_NAME>, a new job is assigned.", 1
2, "Employee Notification", "message-notification", "Message Notification", 1, "Hi <EMPLOYEE_FIRST_NAME>, this is your new message.", 1
