"addressable_id", "addressable_type", "street", "unit", "city", "state", "zip", "is_primary", "is_billing", "latitude", "longitude"
1, "accounts", "3941  Charla Lane", "", "Dallas", "Texas", "75212", 1, 1, 39.266440, -80.331540
2, "accounts", "2891  Rosebud Avenue", "", "Nashville", "Arkansas", "71852", 1, 1, 41.531760, -93.085580
1, "users", "1435  West Drive", "", "Elk Grove Village", "Illinois", "60007", 0, 0, 38.412960, -82.507610
2, "users", "3990  Single Street", "", "Boston", "Massachusetts", "02199", 0, 0, -31.341960, 150.647690
1, "customers", "3136  Buffalo Creek Road", "", "ANNISTON", "Missouri", "63820", 0, 0, 38.261170, -82.498840
2, "customers", "35026  Arbor Court", "", "Mountain View", "Wyoming", "82939", 0, 0, 38.261170, -82.498840
